test/map_table/program.out

Warning-[LNX_OS_VERUN] Unsupported Linux version
  Linux version 'Red Hat Enterprise Linux Workstation release 6.3 (Santiago)' 
  is not supported on 'x86_64' officially, assuming linux compatibility by 
  default. Set VCS_ARCH_OVERRIDE to linux or suse32 to override.
  Please refer to release notes for information on supported platforms.

                         Chronologic VCS (TM)
         Version E-2011.03_Full64 -- Fri Apr 12 16:14:44 2013
               Copyright (c) 1991-2011 by Synopsys Inc.
                         ALL RIGHTS RESERVED

This program is proprietary and confidential information of Synopsys Inc.
and may be used and disclosed only as authorized in a license agreement
controlling such use and disclosure.

DirectC Release 1.0 Copyright (c) 1991-2011 by Synopsys Inc.
Parsing design file 'test_map_table.v'
Parsing design file 'map_table.v'
Top Level Modules:
       testbench
No TimeScale specified
Starting vcs inline pass...
1 module and 0 UDP read.
recompiling module testbench
make[1]: Entering directory `/afs/umich.edu/user/m/a/mattnick/eecs470/P4/eecs470/test/map_table/csrc'
if [ -x ../simv ]; then chmod -x ../simv; fi
g++  -o ../simv   -Wl,-whole-archive    -Wl,-no-whole-archive  _vcsobj_1_1.o  5NrI_d.o 5NrIB_d.o SIM_l.o     rmapats_mop.o rmapats.o      /usr/caen/vcs-2011.03/amd64/lib/libvirsim.so /usr/caen/vcs-2011.03/amd64/lib/liberrorinf.so /usr/caen/vcs-2011.03/amd64/lib/libsnpsmalloc.so     /usr/caen/vcs-2011.03/amd64/lib/libvcsnew.so /usr/caen/vcs-2011.03/amd64/lib/libuclinative.so         /usr/caen/vcs-2011.03/amd64/lib/vcs_save_restore_new.o -ldl  -lc -lm -lpthread -ldl 
../simv up to date
make[1]: Leaving directory `/afs/umich.edu/user/m/a/mattnick/eecs470/P4/eecs470/test/map_table/csrc'
Chronologic VCS simulator copyright 1991-2011
Contains Synopsys proprietary information.
Compiler version E-2011.03_Full64; Runtime version E-2011.03_Full64;  Apr 12 16:14 2013

STARTING TESTBENCH!

reset
  preclock: reset=1 i1_taga_out=xxxxxxxx i1_tagb_out=xxxxxxxx i2_taga_out=xxxxxxxx i2_tagb_out=xxxxxxxx
 postclock: reset=1 i1_taga_out=11111111 i1_tagb_out=11111111 i2_taga_out=11111111 i2_tagb_out=11111111

hold
  preclock: reset=0 i1_taga_out=11111111 i1_tagb_out=11111111 i2_taga_out=11111111 i2_tagb_out=11111111
 postclock: reset=0 i1_taga_out=11111111 i1_tagb_out=11111111 i2_taga_out=11111111 i2_tagb_out=11111111

mapping reg 4 to 0x0A
  preclock: reset=0 i1_taga_out=11111111 i1_tagb_out=11111111 i2_taga_out=11111111 i2_tagb_out=11111111
 postclock: reset=0 i1_taga_out=11111111 i1_tagb_out=11111111 i2_taga_out=11111111 i2_tagb_out=11111111

read from written spot
  preclock: reset=0 i1_taga_out=11111111 i1_tagb_out=11111111 i2_taga_out=11111111 i2_tagb_out=11111111
 postclock: reset=0 i1_taga_out=00001010 i1_tagb_out=11111111 i2_taga_out=11111111 i2_tagb_out=11111111

read tag out on all feeds
  preclock: reset=0 i1_taga_out=00001010 i1_tagb_out=11111111 i2_taga_out=11111111 i2_tagb_out=11111111
 postclock: reset=0 i1_taga_out=00001010 i1_tagb_out=00001010 i2_taga_out=00001010 i2_tagb_out=00001010

forwarding check - reg5
  preclock: reset=0 i1_taga_out=00001010 i1_tagb_out=00001010 i2_taga_out=00001010 i2_tagb_out=00001010
 postclock: reset=0 i1_taga_out=00001011 i1_tagb_out=00001011 i2_taga_out=00001100 i2_tagb_out=00001100

preemption check
  preclock: reset=0 i1_taga_out=00001011 i1_tagb_out=00001011 i2_taga_out=00001100 i2_tagb_out=00001100
 postclock: reset=0 i1_taga_out=00000011 i1_tagb_out=00000011 i2_taga_out=00001100 i2_tagb_out=00001100

  preclock: reset=0 i1_taga_out=00000011 i1_tagb_out=00000011 i2_taga_out=00001100 i2_tagb_out=00001100
 postclock: reset=0 i1_taga_out=00000101 i1_tagb_out=00000101 i2_taga_out=00001100 i2_tagb_out=00001100

clear functionality test
  preclock: reset=0 i1_taga_out=00000101 i1_tagb_out=00000101 i2_taga_out=00001100 i2_tagb_out=00001100
 postclock: reset=0 i1_taga_out=11111111 i1_tagb_out=11111111 i2_taga_out=11111111 i2_tagb_out=11111111

full write
  preclock: reset=0 i1_taga_out=11111111 i1_tagb_out=11111111 i2_taga_out=11111111 i2_tagb_out=11111111
 postclock: reset=0 i1_taga_out=00000001 i1_tagb_out=00000001 i2_taga_out=00000011 i2_tagb_out=00000011

ready-in-ROB bit test
  preclock: reset=0 i1_taga_out=00000001 i1_tagb_out=00000001 i2_taga_out=00000011 i2_tagb_out=00000011
 postclock: reset=0 i1_taga_out=01000001 i1_tagb_out=01000001 i2_taga_out=01000011 i2_tagb_out=01000011

ready-in-ROB persist
  preclock: reset=0 i1_taga_out=01000001 i1_tagb_out=01000001 i2_taga_out=01000011 i2_tagb_out=01000011
 postclock: reset=0 i1_taga_out=01000001 i1_tagb_out=01000001 i2_taga_out=01000011 i2_tagb_out=01000011

reset test
  preclock: reset=1 i1_taga_out=01000001 i1_tagb_out=01000001 i2_taga_out=01000011 i2_tagb_out=01000011
 postclock: reset=1 i1_taga_out=11111111 i1_tagb_out=11111111 i2_taga_out=11111111 i2_tagb_out=11111111

ENDING TESTBENCH : SUCCESS !

$finish called from file "test_map_table.v", line 254.
$finish at simulation time                  130
           V C S   S i m u l a t i o n   R e p o r t 
Time: 130
CPU Time:      0.010 seconds;       Data structure size:   0.0Mb
Fri Apr 12 16:14:45 2013
CPU time: .111 seconds to compile + .037 seconds to elab + .120 seconds to link + .035 seconds in simulation
